…
``` r
# install_github("cran/gutenbergr")
library(gutenbergr)
library(tidytext)
options(digits = 3)
```

You can see the books and documents available in gutenbergr like this:

``` r
gutenberg_metadata
```

    ## # A tibble: 69,199 × 8
    ##    gutenberg_id title              author guten…¹ langu…² guten…³ rights has_t…⁴
    ##           <int> <chr>              <chr>    <int> <chr>   <chr>   <chr>  <lgl>  
    ##  1            1 "The Declaration … Jeffe…    1638 en      Politi… Publi… TRUE   
    ##  2            2 "The United State… Unite…       1 en      Politi… Publi… TRUE   
    ##  3            3 "John F. Kennedy'… Kenne…    1666 en      <NA>    Publi… TRUE   
    ##  4            4 "Lincoln's Gettys… Linco…       3 en      US Civ… Publi… TRUE   
    ##  5            5 "The United State… Unite…       1 en      United… Publi… TRUE   
    ##  6            6 "Give Me Liberty … Henry…       4 en      Americ… Publi… TRUE   
    ##  7            7 "The Mayflower Co… <NA>        NA en      <NA>    Publi… TRUE   
    ##  8            8 "Abraham Lincoln'… Linco…       3 en      US Civ… Publi… TRUE   
    ##  9            9 "Abraham Lincoln'… Linco…       3 en      US Civ… Publi… TRUE   
    ## 10           10 "The King James V… <NA>        NA en      Banned… Publi… TRUE   
    ## # … with 69,189 more rows, and abbreviated variable names ¹​gutenberg_author_id,
    ## #   ²​language, ³​gutenberg_bookshelf, ⁴​has_text
…
``` r
pp <- gutenberg_download(gutenberg_id = 1342)
```

    ## Determining mirror for Project Gutenberg from https://www.gutenberg.org/robot/harvest

    ## Using mirror http://aleph.gutenberg.org

``` r
words <- pp %>% unnest_tokens(word, text)
words
```

    ## # A tibble: 127,996 × 2
    ##    gutenberg_id word        
    ##           <int> <chr>       
    ##  1         1342 illustration
    ##  2         1342 george      
    ##  3         1342 allen       
    ##  4         1342 publisher   
    ##  5         1342 156         
    ##  6         1342 charing     
    ##  7         1342 cross       
    ##  8         1342 road        
    ##  9         1342 london      
    ## 10         1342 ruskin      
    ## # … with 127,986 more rows
…
