…
``` r
pattern <- "^\\d+\\.?\\d*%"
sum(str_detect(polls$remain, pattern, negate = TRUE))
```

    ## [1] 5

``` r
updated <-polls %>% filter(str_detect(polls$remain, pattern))
updated
```

    ## # A tibble: 129 × 9
    ##    dates        remain leave undecided lead  samplesize pollster   poll_…¹ notes
    ##    <chr>        <chr>  <chr> <chr>     <chr> <chr>      <chr>      <chr>   <chr>
    ##  1 23 June 2016 48.1%  51.9% N/A       3.8%  33,577,342 Results o… UK-wid… ""   
    ##  2 23 June      52%    48%   N/A       4%    4,772      YouGov     Online  "On …
    ##  3 22 June      55%    45%   N/A       10%   4,700      Populus    Online  ""   
    ##  4 20–22 June   51%    49%   N/A       2%    3,766      YouGov     Online  "Inc…
    ##  5 20–22 June   49%    46%   1%        3%    1,592      Ipsos MORI Teleph… ""   
    ##  6 20–22 June   44%    45%   9%        1%    3,011      Opinium    Online  ""   
    ##  7 17–22 June   54%    46%   N/A       8%    1,032      ComRes     Teleph… "Tho…
    ##  8 17–22 June   48%    42%   11%       6%    1,032      ComRes     Teleph… "All…
    ##  9 16–22 June   41%    43%   16%       2%    2,320      TNS        Online  ""   
    ## 10 20 June      45%    44%   11%       1%    1,003      Survation… Teleph… ""   
    ## # … with 119 more rows, and abbreviated variable name ¹​poll_type
…
