…
    ## Warning: `as_data_frame()` was deprecated in tibble 2.0.0.
    ## ℹ Please use `as_tibble()` instead.
    ## ℹ The signature and semantics have changed, see `?as_tibble`.

    ## Warning: The `x` argument of `as_tibble.matrix()` must have unique column names if
    ## `.name_repair` is omitted as of tibble 2.0.0.
    ## ℹ Using compatibility `.name_repair`.
    ## ℹ The deprecated feature was likely used in the tibble package.
    ##   Please report the issue at <]8;;https://github.com/tidyverse/tibble/issueshttps://github.com/tidyverse/tibble/issues]8;;>.

    ## # A tibble: 51 × 5
    ##    state                abb   region    population total
    ##    <chr>                <chr> <chr>          <dbl> <dbl>
    ##  1 Alabama              AL    South        4779736   135
    ##  2 Alaska               AK    West          710231    19
    ##  3 Arizona              AZ    West         6392017   232
    ##  4 Arkansas             AR    South        2915918    93
    ##  5 California           CA    West        37253956  1257
    ##  6 Colorado             CO    West         5029196    65
    ##  7 Connecticut          CT    Northeast    3574097    97
    ##  8 Delaware             DE    South         897934    38
    ##  9 District of Columbia DC    South         601723    99
    ## 10 Florida              FL    South       19687653   669
    ## # … with 41 more rows
…
