…
``` r
Teams_small %>%
    mutate(homeruns_per_game = HR/G, runs_per_game = R/G) %>%
    group_by(W_strata) %>%
    do(tidy(lm(avg_attendance ~ homeruns_per_game + runs_per_game, data=.)))
```

    ## # A tibble: 27 × 6
    ## # Groups:   W_strata [9]
    ##    W_strata term              estimate std.error statistic  p.value
    ##       <dbl> <chr>                <dbl>     <dbl>     <dbl>    <dbl>
    ##  1        4 (Intercept)        15761.      3454.    4.56   0.0103  
    ##  2        4 homeruns_per_game   5249.      1519.    3.45   0.0259  
    ##  3        4 runs_per_game      -3748.      1122.   -3.34   0.0288  
    ##  4        5 (Intercept)        -7147.      5104.   -1.40   0.171   
    ##  5        5 homeruns_per_game    849.      5279.    0.161  0.873   
    ##  6        5 runs_per_game       4127.      1844.    2.24   0.0323  
    ##  7        6 (Intercept)        -8835.      3705.   -2.38   0.0189  
    ##  8        6 homeruns_per_game    -87.4     3009.   -0.0291 0.977   
    ##  9        6 runs_per_game       4365.      1182.    3.69   0.000354
    ## 10        7 (Intercept)        -4427.      2191.   -2.02   0.0447  
    ## # … with 17 more rows
…
